{
  "name": "Petilil",
  "nationalPokedexNumber": 548,
  "primaryType": "grass",
  "abilities": [
    "chlorophyll",
    "owntempo",
    "h:leafguard"
  ],
  "baseStats": {
    "hp": 45,
    "attack": 35,
    "defence": 50,
    "special_attack": 70,
    "special_defence": 50,
    "speed": 30
  },
  "catchRate": 190,
  "maleRatio": 0,
  "shoulderMountable": false,
  "baseExperienceYield": 56,
  "experienceGroup": "medium_fast",
  "eggCycles": 20,
  "eggGroups": [
    "grass"
  ],
  "moves": [
    "1:absorb",
    "1:growth",
    "3:helpinghand",
    "6:stunspore",
    "9:megadrain",
    "12:aromatherapy",
    "12:charm",
    "15:magicalleaf",
    "18:sleeppowder",
    "21:gigadrain",
    "24:leechseed",
    "27:afteryou",
    "30:energyball",
    "33:synthesis",
    "36:sunnyday",
    "39:entrainment",
    "42:leafstorm",
    "egg:bide",
    "egg:charm",
    "egg:encore",
    "egg:endure",
    "egg:grasswhistle",
    "egg:healingwish",
    "egg:ingrain",
    "egg:naturalgift",
    "egg:sweetscent",
    "egg:worryseed",
    "tm:attract",
    "tm:bulletseed",
    "tm:charm",
    "tm:confide",
    "tm:cut",
    "tm:doubleteam",
    "tm:dreameater",
    "tm:encore",
    "tm:endure",
    "tm:energyball",
    "tm:facade",
    "tm:flash",
    "tm:frustration",
    "tm:gigadrain",
    "tm:grassknot",
    "tm:helpinghand",
    "tm:hiddenpower",
    "tm:leafstorm",
    "tm:magicalleaf",
    "tm:naturepower",
    "tm:pollenpuff",
    "tm:protect",
    "tm:rest",
    "tm:return",
    "tm:round",
    "tm:safeguard",
    "tm:secretpower",
    "tm:seedbomb",
    "tm:sleeptalk",
    "tm:snore",
    "tm:solarbeam",
    "tm:substitute",
    "tm:sunnyday",
    "tm:swagger",
    "tm:terablast",
    "tm:toxic",
    "tm:trailblaze",
    "tutor:afteryou",
    "tutor:charm",
    "tutor:covet",
    "tutor:gigadrain",
    "tutor:grassyglide",
    "tutor:healbell",
    "tutor:helpinghand",
    "tutor:laserfocus",
    "tutor:seedbomb",
    "tutor:sleeppowder",
    "tutor:sleeptalk",
    "tutor:snore",
    "tutor:sweetscent",
    "tutor:synthesis",
    "tutor:worryseed"
  ],
  "labels": [
    "gen5"
  ],
  "pokedex": [
    "cobblemon.species.petilil.desc"
  ],
  "evolutions": [
    {
      "id": "petilil_lilligant",
      "variant": "item_interact",
      "result": "lilligant",
      "consumeHeldItem": false,
      "learnableMoves": [
        "petaldance"
      ],
      "requirements": [],
      "requiredContext": "cobblemon:sun_stone"
    },
    {
      "id": "petilil_lilligant",
      "variant": "item_interact",
      "result": "lilligant form=hisui",
      "consumeHeldItem": false,
      "learnableMoves": [
        "victorydance"
      ],
      "requirements": [],
      "requiredContext": "cobblemon:sun_stone"
    }
  ],
  "baseScale": 1,
  "hitbox": {
    "width": 1,
    "height": 1,
    "fixed": false
  },
  "baseFriendship": 50,
  "evYield": {
    "hp": 0,
    "attack": 0,
    "defence": 0,
    "special_attack": 1,
    "special_defence": 0,
    "speed": 0
  },
  "height": 5,
  "weight": 66,
  "aspects": [],
  "cannotDynamax": false
}