{
  "name": "Wormadam",
  "nationalPokedexNumber": 413,
  "primaryType": "bug",
  "secondaryType": "grass",
  "abilities": [
    "anticipation",
    "h:overcoat"
  ],
  "baseStats": {
    "hp": 60,
    "attack": 59,
    "defence": 85,
    "special_attack": 79,
    "special_defence": 105,
    "speed": 36
  },
  "catchRate": 45,
  "maleRatio": 0,
  "shoulderMountable": false,
  "baseExperienceYield": 148,
  "baseFriendship": 70,
  "evYield": {
    "hp": 0,
    "attack": 0,
    "defence": 0,
    "special_attack": 0,
    "special_defence": 2,
    "speed": 0
  },
  "experienceGroup": "medium_fast",
  "eggCycles": 15,
  "eggGroups": [
    "bug"
  ],
  "moves": [
    "1:bugbite",
    "1:protect",
    "1:quiverdance",
    "1:suckerpunch",
    "1:tackle",
    "10:protect",
    "15:bugbite",
    "20:hiddenpower",
    "23:confusion",
    "26:razorleaf",
    "29:growth",
    "32:psybeam",
    "35:captivate",
    "38:flail",
    "41:attract",
    "44:psychic",
    "47:leafstorm",
    "50:bugbuzz",
    "tm:attract",
    "tm:bulletseed",
    "tm:captivate",
    "tm:confide",
    "tm:doubleteam",
    "tm:dreameater",
    "tm:endure",
    "tm:energyball",
    "tm:facade",
    "tm:flash",
    "tm:frustration",
    "tm:gigadrain",
    "tm:gigaimpact",
    "tm:grassknot",
    "tm:hiddenpower",
    "tm:hyperbeam",
    "tm:infestation",
    "tm:naturalgift",
    "tm:protect",
    "tm:psychic",
    "tm:psychup",
    "tm:raindance",
    "tm:rest",
    "tm:return",
    "tm:round",
    "tm:safeguard",
    "tm:secretpower",
    "tm:shadowball",
    "tm:skillswap",
    "tm:sleeptalk",
    "tm:solarbeam",
    "tm:strugglebug",
    "tm:substitute",
    "tm:sunnyday",
    "tm:swagger",
    "tm:thief",
    "tm:toxic",
    "tm:venoshock",
    "tutor:allyswitch",
    "tutor:bugbite",
    "tutor:electroweb",
    "tutor:endeavor",
    "tutor:gigadrain",
    "tutor:seedbomb",
    "tutor:signalbeam",
    "tutor:skillswap",
    "tutor:sleeptalk",
    "tutor:snore",
    "tutor:stringshot",
    "tutor:suckerpunch",
    "tutor:synthesis",
    "tutor:telekinesis",
    "tutor:uproar",
    "tutor:worryseed"
  ],
  "labels": [
    "gen4"
  ],
  "pokedex": [
    "cobblemon.species.wormadam.desc"
  ],
  "height": 5,
  "weight": 65,
  "preEvolution": "burmy",
  "evolutions": [],
  "forms": [
    {
      "name": "Sandy",
      "primaryType": "bug",
      "secondaryType": "ground",
      "abilities": [
        "anticipation",
        "h:overcoat"
      ],
      "baseStats": {
        "hp": 60,
        "attack": 79,
        "defence": 105,
        "special_attack": 59,
        "special_defence": 85,
        "speed": 36
      },
      "catchRate": 45,
      "maleRatio": 0,
      "baseExperienceYield": 148,
      "baseFriendship": 70,
      "evYield": {
        "hp": 0,
        "attack": 0,
        "defence": 2,
        "special_attack": 0,
        "special_defence": 0,
        "speed": 0
      },
      "experienceGroup": "medium_fast",
      "eggCycles": 15,
      "eggGroups": [
        "bug"
      ],
      "moves": [
        "1:bugbite",
        "1:protect",
        "1:quiverdance",
        "1:suckerpunch",
        "1:tackle",
        "10:protect",
        "15:bugbite",
        "20:hiddenpower",
        "23:confusion",
        "26:rockblast",
        "29:harden",
        "32:psybeam",
        "35:captivate",
        "38:flail",
        "41:attract",
        "44:psychic",
        "47:fissure",
        "50:bugbuzz",
        "tm:attract",
        "tm:bulldoze",
        "tm:captivate",
        "tm:confide",
        "tm:dig",
        "tm:doubleteam",
        "tm:dreameater",
        "tm:earthquake",
        "tm:endure",
        "tm:facade",
        "tm:flash",
        "tm:frustration",
        "tm:gigaimpact",
        "tm:hiddenpower",
        "tm:hyperbeam",
        "tm:infestation",
        "tm:naturalgift",
        "tm:protect",
        "tm:psychic",
        "tm:psychup",
        "tm:raindance",
        "tm:rest",
        "tm:return",
        "tm:rocktomb",
        "tm:round",
        "tm:safeguard",
        "tm:sandstorm",
        "tm:secretpower",
        "tm:shadowball",
        "tm:skillswap",
        "tm:sleeptalk",
        "tm:strugglebug",
        "tm:substitute",
        "tm:sunnyday",
        "tm:swagger",
        "tm:thief",
        "tm:toxic",
        "tm:venoshock",
        "tutor:allyswitch",
        "tutor:bugbite",
        "tutor:earthpower",
        "tutor:electroweb",
        "tutor:endeavor",
        "tutor:mudslap",
        "tutor:rollout",
        "tutor:signalbeam",
        "tutor:skillswap",
        "tutor:sleeptalk",
        "tutor:snore",
        "tutor:stealthrock",
        "tutor:stringshot",
        "tutor:suckerpunch",
        "tutor:telekinesis",
        "tutor:uproar"
      ],
      "labels": [
        "gen4"
      ],
      "aspects": [
        "sandy"
      ],
      "height": 5,
      "weight": 65,
      "preEvolution": "burmy",
      "evolutions": [],
      "cannotDynamax": false,
      "battleOnly": false
    },
    {
      "name": "Trash",
      "primaryType": "bug",
      "secondaryType": "steel",
      "abilities": [
        "anticipation",
        "h:overcoat"
      ],
      "baseStats": {
        "hp": 60,
        "attack": 69,
        "defence": 95,
        "special_attack": 69,
        "special_defence": 95,
        "speed": 36
      },
      "catchRate": 45,
      "maleRatio": 0,
      "baseExperienceYield": 148,
      "baseFriendship": 70,
      "evYield": {
        "hp": 0,
        "attack": 0,
        "defence": 1,
        "special_attack": 0,
        "special_defence": 1,
        "speed": 0
      },
      "experienceGroup": "medium_fast",
      "eggCycles": 15,
      "eggGroups": [
        "bug"
      ],
      "moves": [
        "1:bugbite",
        "1:metalburst",
        "1:protect",
        "1:quiverdance",
        "1:suckerpunch",
        "1:tackle",
        "10:protect",
        "15:bugbite",
        "20:hiddenpower",
        "23:confusion",
        "26:mirrorshot",
        "29:metalsound",
        "32:psybeam",
        "35:captivate",
        "38:flail",
        "41:attract",
        "44:psychic",
        "47:ironhead",
        "50:bugbuzz",
        "tm:attract",
        "tm:captivate",
        "tm:confide",
        "tm:doubleteam",
        "tm:dreameater",
        "tm:endure",
        "tm:facade",
        "tm:flash",
        "tm:flashcannon",
        "tm:frustration",
        "tm:gigaimpact",
        "tm:gyroball",
        "tm:hiddenpower",
        "tm:hyperbeam",
        "tm:infestation",
        "tm:naturalgift",
        "tm:protect",
        "tm:psychic",
        "tm:psychup",
        "tm:raindance",
        "tm:rest",
        "tm:return",
        "tm:round",
        "tm:safeguard",
        "tm:secretpower",
        "tm:shadowball",
        "tm:skillswap",
        "tm:sleeptalk",
        "tm:stealthrock",
        "tm:strugglebug",
        "tm:substitute",
        "tm:sunnyday",
        "tm:swagger",
        "tm:thief",
        "tm:toxic",
        "tm:venoshock",
        "tutor:allyswitch",
        "tutor:bugbite",
        "tutor:electroweb",
        "tutor:endeavor",
        "tutor:gunkshot",
        "tutor:irondefense",
        "tutor:ironhead",
        "tutor:magnetrise",
        "tutor:signalbeam",
        "tutor:skillswap",
        "tutor:sleeptalk",
        "tutor:snore",
        "tutor:stealthrock",
        "tutor:stringshot",
        "tutor:suckerpunch",
        "tutor:telekinesis",
        "tutor:uproar"
      ],
      "labels": [
        "gen4"
      ],
      "aspects": [
        "trash"
      ],
      "height": 5,
      "weight": 65,
      "preEvolution": "burmy",
      "evolutions": [],
      "cannotDynamax": false,
      "battleOnly": false
    }
  ],
  "aspects": [],
  "cannotDynamax": false
}