{
	"format_version": "1.8.0",
	"animations": {
		"animation.mudbray.ground_idle": {
			"loop": true,
			"bones": {
				"torso": {
					"rotation": ["0+Math.cos((query.anim_time) * 90 * 2) * 1.5", 0, 0],
					"position": [0, "0+Math.cos((query.anim_time-0.3) * 90 * 2) * 0.2", 0]
				},
				"neck": {
					"rotation": ["0+Math.cos((query.anim_time-0.3) * 90 * 2) * 1.5", 0, 0]
				},
				"head": {
					"rotation": ["0+Math.cos((query.anim_time-0.5) * 90 * 2) * -1.5", 0, 0]
				},
				"ear_left": {
					"rotation": ["-12.5+Math.cos((query.anim_time-0.5) * 90 * 2) * 2", 0, 0]
				},
				"ear_left2": {
					"rotation": ["-12.5+Math.cos((query.anim_time-0.8) * 90 * 2) * 2", 0, 0]
				},
				"ear_right": {
					"rotation": ["-12.5+Math.cos((query.anim_time-0.5) * 90 * 2) * 2", 0, 0]
				},
				"ear_right2": {
					"rotation": ["-12.5+Math.cos((query.anim_time-0.8) * 90 * 2) * 2", 0, 0]
				},
				"hair_left2": {
					"rotation": ["0+Math.cos((query.anim_time-1.4) * 90 * 2) * -3", 0, 0]
				},
				"hair_right2": {
					"rotation": ["0+Math.cos((query.anim_time-1.4) * 90 * 2) * -3", 0, 0]
				},
				"tail": {
					"rotation": ["-30+Math.cos((query.anim_time-0.5) * 90 * 2) * -3", 0, 0]
				},
				"tail2": {
					"rotation": ["-15+Math.cos((query.anim_time-0.8) * 90 * 2) * -3", 0, 0]
				},
				"tail3": {
					"rotation": ["-15+Math.cos((query.anim_time-1.2) * 90 * 2) * -3", 0, 0]
				},
				"leg_front_left": {
					"rotation": ["-10+Math.cos((query.anim_time) * 90 * 2) * -1.5", -15, 0],
					"position": [0, "-0.25+Math.cos((query.anim_time-0.5) * 90 * 2) * -0.1", 0]
				},
				"leg_front_left2": {
					"rotation": ["15+Math.cos((query.anim_time-0.2) * 90 * 2) * 1", 0, 0]
				},
				"foot_front_left": {
					"rotation": ["-5+Math.cos((query.anim_time) * 90 * 2) * -1.5", 0, 0],
					"position": [0, "0+Math.cos((query.anim_time-0.7) * 90 * 2) * -0.04", 0]
				},
				"leg_front_right": {
					"rotation": ["-9.1226+Math.cos((query.anim_time) * 90 * 2) * -1.5", 23.31689, 3.6619],
					"position": [0, "-0.25+Math.cos((query.anim_time-0.5) * 90 * 2) * -0.1", 0]
				},
				"leg_front_right2": {
					"rotation": ["15+Math.cos((query.anim_time-0.2) * 90 * 2) * 1", 0, 0]
				},
				"foot_front_right": {
					"rotation": ["-5+Math.cos((query.anim_time) * 90 * 2) * -1.5", 0, 0],
					"position": [0, "0+Math.cos((query.anim_time-0.7) * 90 * 2) * -0.04", 0]
				},
				"leg_back_left": {
					"rotation": ["0+Math.cos((query.anim_time-0.2) * 90 * 2) * 1", 12.5, 0]
				},
				"leg_back_left2": {
					"rotation": ["0+Math.cos((query.anim_time-0.2) * 90 * 2) * -1", 0, 0]
				},
				"leg_back_right": {
					"rotation": ["0+Math.cos((query.anim_time-0.2) * 90 * 2) * 1", -12.5, 0]
				},
				"leg_back_right2": {
					"rotation": ["0+Math.cos((query.anim_time-0.2) * 90 * 2) * -1", 0, 0]
				}
			}
		},
		"animation.mudbray.render": {
			"loop": true,
			"bones": {
				"head": {
					"rotation": [-0.49807, -30.82594, 10.8448]
				},
				"ear_left": {
					"rotation": [2.5, 0, 0]
				},
				"ear_left2": {
					"rotation": [5, 0, 0]
				},
				"ear_right": {
					"rotation": [2.5, 0, 0]
				},
				"ear_right2": {
					"rotation": [5, 0, 0]
				},
				"tail": {
					"rotation": [10, 0, 0]
				},
				"tail2": {
					"rotation": [45, 0, 0]
				},
				"tail3": {
					"rotation": [37.5, 0, 0]
				},
				"leg_front_left": {
					"rotation": [-39.34532, -21.012, 10.4725],
					"position": [0, -0.25, 0]
				},
				"leg_front_right": {
					"rotation": [-35.79573, 27.12204, -1.79457],
					"position": [0, -0.25, 0]
				},
				"leg_back_left": {
					"rotation": [76.76666, 19.62779, -3.40965],
					"position": [0, 3, 0]
				},
				"leg_back_right": {
					"rotation": [76.76666, -19.62779, 3.40965],
					"position": [0, 3, 0]
				},
				"torso": {
					"rotation": [30, 0, 0],
					"position": [0, 3, -0.25]
				},
				"leg_front_left2": {
					"rotation": [20, 0, 0]
				},
				"foot_front_left": {
					"rotation": [-7.5, 0, 0]
				},
				"leg_front_right2": {
					"rotation": [20, 0, 0]
				},
				"foot_front_right": {
					"rotation": [-9.30633, -5.68422, -13.9042]
				},
				"leg_back_left2": {
					"rotation": [-30, 0, 0]
				},
				"foot_back_left": {
					"rotation": [22.5, 0, 0]
				},
				"leg_back_right2": {
					"rotation": [-30, 0, 0]
				},
				"foot_back_right": {
					"rotation": [22.5, 0, 0]
				}
			}
		},
		"animation.mudbray.blink": {
			"animation_length": 0.16667,
			"bones": {
				"eyelid_left": {
					"position": {
						"0.0": [0.1, 0, 0],
						"0.125": [0.1, 0, 0],
						"0.1667": [0, 0, 0]
					}
				},
				"eyelid_right": {
					"position": {
						"0.0": [-0.1, 0, 0],
						"0.125": [-0.1, 0, 0]
					}
				}
			}
		}
	}
}