{
  "implemented": true,
  "name": "Dartrix",
  "nationalPokedexNumber": 723,
  "primaryType": "grass",
  "secondaryType": "flying",
  "abilities": [
    "overgrow",
    "h:longreach"
  ],
  "baseStats": {
    "hp": 78,
    "attack": 75,
    "defence": 75,
    "special_attack": 70,
    "special_defence": 70,
    "speed": 52
  },
  "catchRate": 45,
  "maleRatio": 0.875,
  "shoulderMountable": false,
  "baseExperienceYield": 147,
  "experienceGroup": "medium_slow",
  "eggCycles": 15,
  "eggGroups": [
    "flying"
  ],
  "behaviour": {
    "moving": {
      "fly": {
        "canFly": true
      }
    }
  },
  "drops": {
    "amount": "3",
    "entries": [
      {
        "item": "minecraft:feather",
        "quantityRange": "1-2",
        "percentage": 66
      },
      {
        "item": "minecraft:chicken"
      },
      {
        "item": "cobblemon:miracle_seed",
        "percentage": 10
      }
    ]
  },
  "moves": [
    "1:astonish",
    "1:growl",
    "1:leafage",
    "1:tackle",
    "9:peck",
    "12:shadowsneak",
    "15:razorleaf",
    "16:ominouswind",
    "19:foresight",
    "20:synthesis",
    "25:pluck",
    "30:nastyplot",
    "33:furyattack",
    "35:suckerpunch",
    "40:leafblade",
    "45:featherdance",
    "50:bravebird",
    "tm:aerialace",
    "tm:aircutter",
    "tm:airslash",
    "tm:attract",
    "tm:batonpass",
    "tm:bravebird",
    "tm:bulletseed",
    "tm:confide",
    "tm:doubleteam",
    "tm:echoedvoice",
    "tm:endure",
    "tm:energyball",
    "tm:facade",
    "tm:falseswipe",
    "tm:frustration",
    "tm:gigadrain",
    "tm:grassknot",
    "tm:grasspledge",
    "tm:grassyterrain",
    "tm:helpinghand",
    "tm:hiddenpower",
    "tm:leafblade",
    "tm:leafstorm",
    "tm:lightscreen",
    "tm:magicalleaf",
    "tm:nastyplot",
    "tm:naturepower",
    "tm:protect",
    "tm:raindance",
    "tm:rest",
    "tm:return",
    "tm:roost",
    "tm:round",
    "tm:safeguard",
    "tm:seedbomb",
    "tm:shadowclaw",
    "tm:sleeptalk",
    "tm:snore",
    "tm:solarbeam",
    "tm:steelwing",
    "tm:substitute",
    "tm:sunnyday",
    "tm:swagger",
    "tm:swift",
    "tm:swordsdance",
    "tm:tailwind",
    "tm:takedown",
    "tm:terablast",
    "tm:toxic",
    "tm:trailblaze",
    "tm:workup",
    "tutor:covet",
    "tutor:defog",
    "tutor:dualwingbeat",
    "tutor:gigadrain",
    "tutor:grasspledge",
    "tutor:grassyglide",
    "tutor:seedbomb",
    "tutor:skyattack",
    "tutor:snore",
    "tutor:synthesis",
    "tutor:worryseed"
  ],
  "labels": [
    "gen7"
  ],
  "pokedex": [
    "cobblemon.species.dartrix.desc"
  ],
  "preEvolution": "rowlet",
  "evolutions": [
    {
      "id": "dartrix_decidueye",
      "variant": "level_up",
      "result": "decidueye",
      "consumeHeldItem": false,
      "learnableMoves": [
        "spiritshackle"
      ],
      "requirements": [
        {
          "variant": "level",
          "minLevel": 34
        }
      ]
    },
    {
      "id": "dartrix_decidueye",
      "variant": "level_up",
      "result": "decidueye form=hisui",
      "consumeHeldItem": false,
      "learnableMoves": [
        "triplearrows"
      ],
      "requirements": [
        {
          "variant": "level",
          "minLevel": 36
        }
      ]
    }
  ],
  "baseScale": 0.7,
  "hitbox": {
    "width": 0.6,
    "height": 1,
    "fixed": false
  },
  "baseFriendship": 50,
  "evYield": {
    "hp": 2,
    "attack": 0,
    "defence": 0,
    "special_attack": 0,
    "special_defence": 0,
    "speed": 0
  },
  "height": 7,
  "weight": 160,
  "aspects": [],
  "cannotDynamax": false
}