{
  "name": "Oricorio",
  "nationalPokedexNumber": 741,
  "primaryType": "fire",
  "secondaryType": "flying",
  "abilities": [
    "dancer"
  ],
  "baseStats": {
    "hp": 75,
    "attack": 70,
    "defence": 70,
    "special_attack": 98,
    "special_defence": 70,
    "speed": 93
  },
  "catchRate": 45,
  "maleRatio": 0.25,
  "shoulderMountable": false,
  "baseExperienceYield": 167,
  "baseFriendship": 70,
  "evYield": {
    "hp": 0,
    "attack": 0,
    "defence": 0,
    "special_attack": 2,
    "special_defence": 0,
    "speed": 0
  },
  "experienceGroup": "medium_fast",
  "eggCycles": 20,
  "eggGroups": [
    "flying"
  ],
  "moves": [
    "1:pound",
    "4:growl",
    "6:peck",
    "10:helpinghand",
    "13:aircutter",
    "16:batonpass",
    "20:featherdance",
    "23:acrobatics",
    "23:doubleslap",
    "26:teeterdance",
    "30:roost",
    "33:captivate",
    "33:flatter",
    "36:airslash",
    "40:revelationdance",
    "43:agility",
    "43:mirrormove",
    "47:hurricane",
    "egg:attract",
    "egg:captivate",
    "egg:defog",
    "egg:pluck",
    "egg:quiverdance",
    "egg:safeguard",
    "egg:tailwind",
    "tm:acrobatics",
    "tm:aerialace",
    "tm:agility",
    "tm:aircutter",
    "tm:airslash",
    "tm:attract",
    "tm:batonpass",
    "tm:calmmind",
    "tm:charm",
    "tm:confide",
    "tm:doubleteam",
    "tm:embargo",
    "tm:endure",
    "tm:facade",
    "tm:fly",
    "tm:frustration",
    "tm:helpinghand",
    "tm:hiddenpower",
    "tm:hurricane",
    "tm:icywind",
    "tm:protect",
    "tm:quash",
    "tm:raindance",
    "tm:rest",
    "tm:return",
    "tm:reversal",
    "tm:roost",
    "tm:round",
    "tm:safeguard",
    "tm:sandstorm",
    "tm:sleeptalk",
    "tm:steelwing",
    "tm:substitute",
    "tm:sunnyday",
    "tm:swagger",
    "tm:swift",
    "tm:swordsdance",
    "tm:tailwind",
    "tm:takedown",
    "tm:taunt",
    "tm:terablast",
    "tm:toxic",
    "tm:trailblaze",
    "tm:uturn",
    "tm:workup",
    "tutor:covet",
    "tutor:defog",
    "tutor:helpinghand",
    "tutor:icywind",
    "tutor:roleplay",
    "tutor:skyattack",
    "tutor:snore",
    "tutor:tailwind"
  ],
  "labels": [
    "gen7"
  ],
  "pokedex": [
    "cobblemon.species.oricorio.desc"
  ],
  "height": 6,
  "weight": 34,
  "evolutions": [],
  "forms": [
    {
      "name": "Pom-Pom",
      "primaryType": "electric",
      "secondaryType": "flying",
      "abilities": [
        "dancer"
      ],
      "baseStats": {
        "hp": 75,
        "attack": 70,
        "defence": 70,
        "special_attack": 98,
        "special_defence": 70,
        "speed": 93
      },
      "catchRate": 45,
      "maleRatio": 0.25,
      "baseExperienceYield": 167,
      "baseFriendship": 70,
      "evYield": {
        "hp": 0,
        "attack": 0,
        "defence": 0,
        "special_attack": 2,
        "special_defence": 0,
        "speed": 0
      },
      "experienceGroup": "medium_fast",
      "eggCycles": 20,
      "eggGroups": [
        "flying"
      ],
      "labels": [
        "gen7"
      ],
      "aspects": [
        "pom-pom"
      ],
      "height": 6,
      "weight": 34,
      "evolutions": [],
      "cannotDynamax": false,
      "battleOnly": false
    },
    {
      "name": "Pa'u",
      "primaryType": "psychic",
      "secondaryType": "flying",
      "abilities": [
        "dancer"
      ],
      "baseStats": {
        "hp": 75,
        "attack": 70,
        "defence": 70,
        "special_attack": 98,
        "special_defence": 70,
        "speed": 93
      },
      "catchRate": 45,
      "maleRatio": 0.25,
      "baseExperienceYield": 167,
      "baseFriendship": 70,
      "evYield": {
        "hp": 0,
        "attack": 0,
        "defence": 0,
        "special_attack": 2,
        "special_defence": 0,
        "speed": 0
      },
      "experienceGroup": "medium_fast",
      "eggCycles": 20,
      "eggGroups": [
        "flying"
      ],
      "labels": [
        "gen7"
      ],
      "aspects": [
        "pa'u"
      ],
      "height": 6,
      "weight": 34,
      "evolutions": [],
      "cannotDynamax": false,
      "battleOnly": false
    },
    {
      "name": "Sensu",
      "primaryType": "ghost",
      "secondaryType": "flying",
      "abilities": [
        "dancer"
      ],
      "baseStats": {
        "hp": 75,
        "attack": 70,
        "defence": 70,
        "special_attack": 98,
        "special_defence": 70,
        "speed": 93
      },
      "catchRate": 45,
      "maleRatio": 0.25,
      "baseExperienceYield": 167,
      "baseFriendship": 70,
      "evYield": {
        "hp": 0,
        "attack": 0,
        "defence": 0,
        "special_attack": 2,
        "special_defence": 0,
        "speed": 0
      },
      "experienceGroup": "medium_fast",
      "eggCycles": 20,
      "eggGroups": [
        "flying"
      ],
      "labels": [
        "gen7"
      ],
      "aspects": [
        "sensu"
      ],
      "height": 6,
      "weight": 34,
      "evolutions": [],
      "cannotDynamax": false,
      "battleOnly": false
    }
  ],
  "aspects": [],
  "cannotDynamax": false
}