{
	"format_version": "1.8.0",
	"animations": {
		"animation.farfetchd_galar.blink": {
			"animation_length": 0.16667,
			"bones": {
				"eyelid_left": {
					"position": {
						"0.0": [-0.1, 0, -0.1],
						"0.125": [-0.1, 0, -0.1],
						"0.1667": [0, 0, 0]
					}
				},
				"eyelid_right": {
					"position": {
						"0.0": [0.1, 0, -0.1],
						"0.125": [0.1, 0, -0.1],
						"0.1667": [0, 0, 0]
					}
				}
			}
		},
		"animation.farfetchd_galar.cry": {
			"animation_length": 1.5,
			"bones": {
				"neck": {
					"rotation": {
						"0.0": [0, 0, 0],
						"0.25": [10, 0, 0],
						"1.25": [10, 0, 0],
						"1.5": [0, 0, 0]
					}
				},
				"head": {
					"rotation": {
						"0.0": [0, 0, 0],
						"0.25": [-15, 0, 0],
						"1.25": [-15, 0, 0],
						"1.5": [0, 0, 0]
					}
				},
				"jaw": {
					"rotation": {
						"0.0": [0, 0, 0],
						"0.25": [25, 0, 0],
						"1.25": [25, 0, 0],
						"1.5": [0, 0, 0]
					}
				}
			}
		},
		"animation.farfetchd_galar.ground_idle": {
			"loop": true,
			"bones": {
				"wing_left": {
					"rotation": [12.5, -35, 70]
				},
				"wing_left2": {
					"rotation": [0, 35, 0]
				},
				"wing_left3": {
					"rotation": [0, -30, 0]
				},
				"wing_right": {
					"rotation": [-48.39339, -20.70481, -22.20765]
				},
				"wing_right2": {
					"rotation": [2.89341, -14.2906, 18.07779]
				},
				"leak": {
					"rotation": [0, 0, 0]
				},
				"leak2": {
					"rotation": [23, 0, 0]
				},
				"wing_right_finger": {
					"rotation": [0, 0, -80]
				},
				"wing_right_finger5": {
					"rotation": [0, 0, -60]
				},
				"wing_right_finger2": {
					"rotation": [0, 0, -72.5]
				},
				"wing_right_finger6": {
					"rotation": [0, 0, -50]
				},
				"wing_right_finger3": {
					"rotation": [0, 0, -80]
				},
				"wing_right_finger7": {
					"rotation": [0, 0, -60]
				},
				"wing_right_finger4": {
					"rotation": [0, 0, -87.5]
				},
				"wing_right_finger8": {
					"rotation": [0, 0, -40]
				}
			}
		}
	}
}