{
  "implemented": true,
  "name": "Tangela",
  "nationalPokedexNumber": 114,
  "primaryType": "grass",
  "abilities": [
    "chlorophyll",
    "leafguard",
    "h:regenerator"
  ],
  "baseStats": {
    "hp": 65,
    "attack": 55,
    "defence": 115,
    "special_attack": 100,
    "special_defence": 40,
    "speed": 60
  },
  "catchRate": 45,
  "maleRatio": 0.5,
  "shoulderMountable": false,
  "baseExperienceYield": 87,
  "experienceGroup": "medium_fast",
  "eggCycles": 20,
  "eggGroups": [
    "grass"
  ],
  "drops": {
    "amount": "2",
    "entries": [
      {
        "item": "minecraft:vines",
        "percentage": 50
      },
      {
        "item": "cobblemon:big_root",
        "percentage": 2.5
      }
    ]
  },
  "moves": [
    "1:absorb",
    "1:bind",
    "1:constrict",
    "4:stunspore",
    "8:growth",
    "12:megadrain",
    "16:vinewhip",
    "20:poisonpowder",
    "24:ancientpower",
    "28:knockoff",
    "32:gigadrain",
    "33:naturalgift",
    "36:sleeppowder",
    "40:slam",
    "44:tickle",
    "46:wringout",
    "48:powerwhip",
    "52:ingrain",
    "56:grassyterrain",
    "egg:amnesia",
    "egg:confusion",
    "egg:endeavor",
    "egg:flail",
    "egg:gigadrain",
    "egg:leafstorm",
    "egg:leechseed",
    "egg:megadrain",
    "egg:naturalgift",
    "egg:naturepower",
    "egg:powerswap",
    "egg:ragepowder",
    "egg:reflect",
    "egg:wakeupslap",
    "tm:amnesia",
    "tm:attract",
    "tm:bodyslam",
    "tm:bulletseed",
    "tm:captivate",
    "tm:confide",
    "tm:cut",
    "tm:doubleteam",
    "tm:endure",
    "tm:energyball",
    "tm:facade",
    "tm:flash",
    "tm:frustration",
    "tm:gigadrain",
    "tm:gigaimpact",
    "tm:grassknot",
    "tm:grassyterrain",
    "tm:hiddenpower",
    "tm:hyperbeam",
    "tm:infestation",
    "tm:leafstorm",
    "tm:naturalgift",
    "tm:naturepower",
    "tm:powerswap",
    "tm:powerwhip",
    "tm:protect",
    "tm:psychup",
    "tm:reflect",
    "tm:rest",
    "tm:return",
    "tm:rocksmash",
    "tm:round",
    "tm:secretpower",
    "tm:seedbomb",
    "tm:shockwave",
    "tm:sleeptalk",
    "tm:sludgebomb",
    "tm:snore",
    "tm:solarbeam",
    "tm:substitute",
    "tm:sunnyday",
    "tm:swagger",
    "tm:swordsdance",
    "tm:thief",
    "tm:toxic",
    "tutor:absorb",
    "tutor:amnesia",
    "tutor:ancientpower",
    "tutor:attract",
    "tutor:bide",
    "tutor:bind",
    "tutor:bodyslam",
    "tutor:confusion",
    "tutor:constrict",
    "tutor:curse",
    "tutor:cut",
    "tutor:doubleedge",
    "tutor:doubleteam",
    "tutor:endeavor",
    "tutor:endure",
    "tutor:facade",
    "tutor:flail",
    "tutor:flash",
    "tutor:frustration",
    "tutor:gigadrain",
    "tutor:grassyglide",
    "tutor:growth",
    "tutor:headbutt",
    "tutor:hiddenpower",
    "tutor:hyperbeam",
    "tutor:ingrain",
    "tutor:knockoff",
    "tutor:leechseed",
    "tutor:megadrain",
    "tutor:mimic",
    "tutor:morningsun",
    "tutor:painsplit",
    "tutor:poisonpowder",
    "tutor:powerwhip",
    "tutor:protect",
    "tutor:psychup",
    "tutor:rage",
    "tutor:reflect",
    "tutor:rest",
    "tutor:return",
    "tutor:seedbomb",
    "tutor:shockwave",
    "tutor:skullbash",
    "tutor:slam",
    "tutor:sleeppowder",
    "tutor:sleeptalk",
    "tutor:sludgebomb",
    "tutor:snore",
    "tutor:solarbeam",
    "tutor:stunspore",
    "tutor:substitute",
    "tutor:sunnyday",
    "tutor:swagger",
    "tutor:sweetscent",
    "tutor:swordsdance",
    "tutor:synthesis",
    "tutor:takedown",
    "tutor:thief",
    "tutor:toxic",
    "tutor:vinewhip",
    "tutor:worryseed"
  ],
  "labels": [
    "gen1"
  ],
  "pokedex": [
    "cobblemon.species.tangela.desc"
  ],
  "evolutions": [
    {
      "id": "tangela_tangrowth",
      "variant": "level_up",
      "result": "tangrowth",
      "consumeHeldItem": false,
      "learnableMoves": [],
      "requirements": [
        {
          "variant": "has_move",
          "move": "ancientpower"
        }
      ]
    }
  ],
  "baseScale": 1.5,
  "hitbox": {
    "width": 0.8,
    "height": 0.6,
    "fixed": false
  },
  "baseFriendship": 50,
  "evYield": {
    "hp": 0,
    "attack": 0,
    "defence": 1,
    "special_attack": 0,
    "special_defence": 0,
    "speed": 0
  },
  "height": 10,
  "weight": 350,
  "aspects": [],
  "cannotDynamax": false
}