{
  "name": "Lileep",
  "nationalPokedexNumber": 345,
  "primaryType": "rock",
  "secondaryType": "grass",
  "abilities": [
    "suctioncups",
    "h:stormdrain"
  ],
  "baseStats": {
    "hp": 66,
    "attack": 41,
    "defence": 77,
    "special_attack": 61,
    "special_defence": 87,
    "speed": 23
  },
  "catchRate": 45,
  "maleRatio": 0.875,
  "shoulderMountable": false,
  "baseExperienceYield": 71,
  "experienceGroup": "erratic",
  "eggCycles": 30,
  "eggGroups": [
    "water_3"
  ],
  "moves": [
    "1:astonish",
    "1:constrict",
    "1:wrap",
    "4:acid",
    "8:confuseray",
    "12:ingrain",
    "16:ancientpower",
    "20:megadrain",
    "24:brine",
    "28:amnesia",
    "32:gastroacid",
    "36:gigadrain",
    "41:spitup",
    "41:stockpile",
    "41:swallow",
    "44:energyball",
    "52:wringout",
    "egg:barrier",
    "egg:bind",
    "egg:curse",
    "egg:endure",
    "egg:megadrain",
    "egg:mirrorcoat",
    "egg:recover",
    "egg:rockslide",
    "egg:stealthrock",
    "egg:tickle",
    "egg:wringout",
    "tm:amnesia",
    "tm:attract",
    "tm:bodyslam",
    "tm:brine",
    "tm:bulletseed",
    "tm:captivate",
    "tm:confide",
    "tm:doubleteam",
    "tm:earthpower",
    "tm:endure",
    "tm:energyball",
    "tm:facade",
    "tm:flash",
    "tm:frustration",
    "tm:gigadrain",
    "tm:grassknot",
    "tm:hiddenpower",
    "tm:infestation",
    "tm:mudshot",
    "tm:naturalgift",
    "tm:protect",
    "tm:rest",
    "tm:return",
    "tm:rockblast",
    "tm:rockpolish",
    "tm:rockslide",
    "tm:rocktomb",
    "tm:round",
    "tm:sandstorm",
    "tm:secretpower",
    "tm:seedbomb",
    "tm:sleeptalk",
    "tm:sludgebomb",
    "tm:smackdown",
    "tm:snore",
    "tm:solarbeam",
    "tm:stealthrock",
    "tm:substitute",
    "tm:sunnyday",
    "tm:swagger",
    "tm:swordsdance",
    "tm:toxic",
    "tutor:acid",
    "tutor:ancientpower",
    "tutor:bind",
    "tutor:bodyslam",
    "tutor:constrict",
    "tutor:doubleedge",
    "tutor:earthpower",
    "tutor:endure",
    "tutor:gastroacid",
    "tutor:gigadrain",
    "tutor:meteorbeam",
    "tutor:mimic",
    "tutor:mirrorcoat",
    "tutor:mudslap",
    "tutor:painsplit",
    "tutor:psychup",
    "tutor:recover",
    "tutor:rockslide",
    "tutor:seedbomb",
    "tutor:sleeptalk",
    "tutor:snore",
    "tutor:stealthrock",
    "tutor:stringshot",
    "tutor:substitute",
    "tutor:swagger",
    "tutor:synthesis",
    "tutor:worryseed"
  ],
  "labels": [
    "gen3"
  ],
  "pokedex": [
    "cobblemon.species.lileep.desc"
  ],
  "evolutions": [
    {
      "id": "lileep_cradily",
      "variant": "level_up",
      "result": "cradily",
      "consumeHeldItem": false,
      "learnableMoves": [],
      "requirements": [
        {
          "variant": "level",
          "minLevel": 40
        }
      ]
    }
  ],
  "baseScale": 1,
  "hitbox": {
    "width": 1,
    "height": 1,
    "fixed": false
  },
  "baseFriendship": 50,
  "evYield": {
    "hp": 0,
    "attack": 0,
    "defence": 0,
    "special_attack": 0,
    "special_defence": 1,
    "speed": 0
  },
  "height": 10,
  "weight": 238,
  "aspects": [],
  "cannotDynamax": false
}